Controller/IOController/JumpController_tb.vcd
$date
	Mon Nov 29 13:41:48 2021
$end
$version
	Icarus Verilog
$end
$timescale
	100ps
$end
$scope module JumpController_tb $end
$var wire 1 ! proc_clk $end
$var wire 32 " interrupt_instruction [31:0] $end
$var wire 1 # frame_rate_clk $end
$var reg 1 $ clock $end
$var reg 1 % jump $end
$var integer 32 & i [31:0] $end
$scope module frame_rate_clock_divider $end
$var wire 1 # divclk $end
$var wire 64 ' divclkfreq [63:0] $end
$var wire 64 ( sysclkfreq [63:0] $end
$var wire 1 ! sysclk $end
$var wire 65 ) CounterLimit [64:0] $end
$var reg 65 * counter [64:0] $end
$var reg 1 + divided_clk $end
$upscope $end
$scope module input_controller $end
$var wire 32 , CounterLimit [31:0] $end
$var wire 1 # frame_rt_clk $end
$var wire 1 % jump_key $end
$var wire 1 $ proc_clk $end
$var wire 1 - reset $end
$var wire 32 . interrupt_instrucion [31:0] $end
$var wire 32 / input_instruction [31:0] $end
$var wire 32 0 frame_rdy_instruction [31:0] $end
$var wire 1 1 can_jump $end
$var reg 32 2 counter [31:0] $end
$var reg 1 3 key_interrupt_reg $end
$var reg 1 4 next_frame_rdy $end
$scope module frame_rdy_inst_builder $end
$var wire 32 5 instruction [31:0] $end
$upscope $end
$scope module jump_inst_builder $end
$var wire 32 6 instruction [31:0] $end
$upscope $end
$scope module jumper $end
$var wire 32 7 CounterLimit [31:0] $end
$var wire 1 # frame_rt_clk $end
$var wire 1 $ proc_clk $end
$var wire 1 - reset $end
$var wire 1 1 can_jump $end
$var reg 32 8 counter [31:0] $end
$var reg 1 1 jump_reg $end
$upscope $end
$upscope $end
$scope module proc_clock_divider $end
$var wire 1 ! divclk $end
$var wire 64 9 divclkfreq [63:0] $end
$var wire 1 $ sysclk $end
$var wire 64 : sysclkfreq [63:0] $end
$var wire 65 ; CounterLimit [64:0] $end
$var reg 65 < counter [64:0] $end
$var reg 1 = divided_clk $end
$upscope $end
$upscope $end
$enddefinitions $end
#300
$dumpvars
0=
b10 <
b11111111111111111111111111111111111111111111111111111111111111111 ;
b101 :
b101 9
b10 8
b10 7
b101111010000000000000000000001 6
b101111000000000000000000000001 5
04
03
b10 2
01
b101111000000000000000000000001 0
b101111010000000000000000000001 /
b0 .
0-
b11001011011100110100 ,
0+
b0 *
b1 )
b101 (
b1 '
b1111101000 &
1%
1$
0#
b0 "
0!
$end
#400
0$
#500
b0 8
11
b11 2
b11 <
1$
#600
0$
#700
b100 2
01
b1 8
b100 <
1$
#800
0$
#900
b10 8
b101 2
b101 <
1$
#1000
0$
#1100
b110 2
b0 8
11
b110 <
1$
#1200
0$
#1300
01
b1 8
b111 2
b111 <
1$
#1400
0$
#1500
b1000 2
b10 8
b1000 <
1$
#1600
0$
#1700
b0 8
11
b1001 2
b1001 <
1$
#1800
0$
#1900
b1010 2
01
b1 8
b1010 <
1$
#2000
0$
#2100
b10 8
b1011 2
b1011 <
1$
#2200
0$
#2300
b1100 2
b0 8
11
b1100 <
1$
#2400
0$
#2500
01
b1 8
b1101 2
b1101 <
1$
#2600
0$
#2700
b1110 2
b10 8
b1110 <
1$
#2800
0$
#2900
b0 8
11
b1111 2
b1111 <
1$
#3000
0$
#3100
b10000 2
01
b1 8
b10000 <
1$
#3200
0$
#3300
b10 8
b10001 2
b10001 <
1$
#3400
0$
#3500
b10010 2
b0 8
11
b10010 <
1$
#3600
0$
#3700
01
b1 8
b10011 2
b10011 <
1$
#3800
0$
#3900
b10100 2
b10 8
b10100 <
1$
#4000
0$
#4100
b0 8
11
b10101 2
b10101 <
1$
#4200
0$
#4300
b10110 2
01
b1 8
b10110 <
1$
#4400
0$
#4500
b10 8
b10111 2
b10111 <
1$
#4600
0$
#4700
b11000 2
b0 8
11
b11000 <
1$
#4800
0$
#4900
01
b1 8
b11001 2
b11001 <
1$
#5000
0$
#5100
b11010 2
b10 8
b11010 <
1$
#5200
0$
#5300
b0 8
11
b11011 2
b11011 <
1$
#5400
0$
#5500
b11100 2
01
b1 8
b11100 <
1$
#5600
0$
#5700
b10 8
b11101 2
b11101 <
1$
#5800
0$
#5900
b11110 2
b0 8
11
b11110 <
1$
#6000
0$
#6100
01
b1 8
b11111 2
b11111 <
1$
#6200
0$
#6300
b100000 2
b10 8
b100000 <
1$
#6400
0$
#6500
b0 8
11
b100001 2
b100001 <
1$
#6600
0$
#6700
b100010 2
01
b1 8
b100010 <
1$
#6800
0$
#6900
b10 8
b100011 2
b100011 <
1$
#7000
0$
#7100
b100100 2
b0 8
11
b100100 <
1$
#7200
0$
#7300
01
b1 8
b100101 2
b100101 <
1$
#7400
0$
#7500
b100110 2
b10 8
b100110 <
1$
#7600
0$
#7700
b0 8
11
b100111 2
b100111 <
1$
#7800
0$
#7900
b101000 2
01
b1 8
b101000 <
1$
#8000
0$
#8100
b10 8
b101001 2
b101001 <
1$
#8200
0$
#8300
b101010 2
b0 8
11
b101010 <
1$
#8400
0$
#8500
01
b1 8
b101011 2
b101011 <
1$
#8600
0$
#8700
b101100 2
b10 8
b101100 <
1$
#8800
0$
#8900
b0 8
11
b101101 2
b101101 <
1$
#9000
0$
#9100
b101110 2
01
b1 8
b101110 <
1$
#9200
0$
#9300
b10 8
b101111 2
b101111 <
1$
#9400
0$
#9500
b110000 2
b0 8
11
b110000 <
1$
#9600
0$
#9700
01
b1 8
b110001 2
b110001 <
1$
#9800
0$
#9900
b110010 2
b10 8
b110010 <
1$
#10000
0$
#10100
b0 8
11
b110011 2
b110011 <
1$
#10200
0$
#10300
b110100 2
01
b1 8
b110100 <
1$
